2002/07/22/big/img_43
1
178 61 104 104 6.80065519008
2002/07/26/big/img_634
1
254 63 90 90 6.09681815229
2002/07/19/big/img_843
4
214 24 73 73 7.26365799474
54 65 111 111 9.80008901318
63 157 85 85 1.14559898904
322 55 113 113 0.908842055534
2002/08/26/big/img_58
0
2002/07/21/big/img_375
1
120 69 185 185 4.49692207942
2002/08/25/big/img_729
2
149 45 95 95 6.72982514359
336 74 92 92 6.67324108578
2002/07/19/big/img_561
1
91 26 146 146 10.9347529604
2003/01/15/big/img_884
2
213 34 145 145 6.22622203262
96 52 120 120 8.26602291217
2002/07/25/big/img_891
1
86 104 235 235 4.88480519608
2002/08/09/big/img_558
1
96 56 155 155 4.93687907292
2002/08/26/big/img_587
3
193 40 77 77 9.91136704793
345 63 68 68 8.47458717268
69 57 77 77 6.72213910182
2002/08/13/big/img_1146
2
122 73 134 134 9.31571810594
59 110 118 118 6.42640909564
2002/09/02/big/img_15153
2
32 66 173 173 5.64379500033
227 83 159 159 6.72883100359
2002/07/26/big/img_316
2
172 374 30 30 3.32953804935
108 80 81 81 4.58008903865
2002/08/01/big/img_1940
2
46 42 121 121 7.72754903615
123 226 88 88 2.50250104174
2002/08/26/big/img_90
1
128 90 140 140 4.76297099551
2003/01/13/big/img_347
1
18 71 118 118 8.89817908814
2002/07/25/big/img_520
2
144 108 87 87 4.27775103872
118 63 113 113 3.45036203245
2002/08/29/big/img_18718
2
258 80 62 62 -0.366845954966
146 117 120 120 7.04026203085
2002/08/28/big/img_19219
0
2002/08/13/big/img_375
1
129 92 95 95 8.25316516979
2002/07/20/big/img_719
3
40 77 98 98 9.49712812708
153 39 125 125 6.45882306847
138 4 112 112 -0.592174865829
2002/08/31/big/img_17431
2
149 87 77 77 4.36175519525
192 191 89 89 3.61154999613
2002/07/28/big/img_192
1
119 77 158 158 9.36642404663
2002/08/26/big/img_259
2
110 64 129 129 7.38526106201
256 101 101 101 6.4386830462
2002/08/18/big/img_484
3
190 130 65 65 4.98298505618
289 45 138 138 5.44960414403
51 101 95 95 6.26218203938
2002/07/29/big/img_580
0
2002/07/26/big/img_84
2
195 68 33 33 2.70918316016
106 39 74 74 8.10341915383
2002/08/02/big/img_302
0
2002/08/31/big/img_17007
0
2003/01/15/big/img_543
1
4 25 79 79 5.99840196571
2002/09/01/big/img_16488
1
109 47 78 78 11.3528960356
2002/08/22/big/img_798
2
133 71 136 136 8.08063800953
63 303 65 65 5.39125604922
2002/07/30/big/img_383
1
252 58 145 145 4.88592009241
2002/08/04/big/img_668
1
96 61 135 135 8.88201708434
2002/08/13/big/img_156
1
83 42 108 108 2.94567715883
2002/08/07/big/img_1353
1
117 53 75 75 6.79751610191
2002/07/25/big/img_281
1
91 28 88 88 6.35110899463
2003/01/14/big/img_587
3
42 61 39 39 3.61300110625
74 33 80 80 4.21343708219
208 94 115 115 8.3810890037
2003/01/15/big/img_524
2
67 154 118 118 6.5434360322
211 174 91 91 7.77148304938
2002/08/19/big/img_726
1
77 45 94 94 4.78468305286
2002/08/21/big/img_709
5
268 22 96 96 0.63403601473
27 74 74 74 8.00333994994
179 61 106 106 7.36325804557
355 139 79 79 9.56635296525
175 141 94 94 3.8203530279
2002/08/26/big/img_465
1
42 95 245 245 10.4627670889
2002/07/31/big/img_658
5
136 3 43 43 3.66349617689
20 46 135 135 8.09795698262
201 32 137 137 6.79513199319
209 272 143 143 6.10459207412
18 255 155 155 7.79166902852
2002/08/28/big/img_19148
2
186 54 99 99 7.36907900329
407 261 27 27 0.776821045845
2002/07/23/big/img_423
1
19 88 265 265 7.23557712714
2002/08/16/big/img_758
1
21 93 216 216 6.66904511413
2002/08/22/big/img_523
1
22 202 153 153 8.92428607162
2002/08/16/big/img_591
3
152 12 35 35 2.09904203069
10 174 79 79 2.56362014421
68 38 102 102 7.01546819898
2002/08/23/big/img_845
2
375 81 69 69 2.84513214615
216 79 79 79 0.448775064549
2002/07/26/big/img_678
1
73 219 123 123 4.27629100357
2002/08/09/big/img_806
1
92 59 149 149 4.62170317554
2002/08/06/big/img_2369
6
248 144 68 68 5.3477551089
127 42 85 85 7.99555105431
8 117 90 90 3.95610810391
4 5 81 81 1.50973715202
202 52 150 150 4.70150515361
258 123 110 110 2.42903805332
2002/07/29/big/img_457
2
128 420 25 25 2.66761109425
24 110 238 238 7.69975703669
2002/07/19/big/img_278
3
116 4 48 48 2.32260002865
339 103 61 61 7.0055470955
154 104 72 72 5.43354609044
2002/08/30/big/img_18107
1
116 31 84 84 11.4137781679
2002/07/26/big/img_444
3
161 197 73 73 3.53725301806
139 107 100 100 6.55337801011
13 369 59 59 3.97326001775
2002/08/20/big/img_278
1
99 70 82 82 5.12495109806
2002/08/26/big/img_92
2
72 149 196 196 7.72606606042
164 157 162 162 2.97155901237
2002/08/26/big/img_257
1
57 153 117 117 12.2364661556
2002/07/25/big/img_266
1
18 71 203 203 9.45662609243
2002/08/05/big/img_3829
3
121 102 58 58 1.8847881243
115 119 77 77 8.48049604648
288 183 69 69 9.15572709811
2002/07/26/big/img_757
2
244 148 88 88 8.89288311772
129 207 88 88 5.10336413549
2002/07/29/big/img_1536
1
152 56 123 123 5.97497802478
2002/08/09/big/img_472
1
142 43 108 108 8.4584649796
2003/01/17/big/img_480
3
219 30 71 71 4.15388200275
85 70 81 81 7.21104913804
68 9 146 146 2.91329217231
2002/08/28/big/img_19355
3
17 39 90 90 9.21019904816
216 109 77 77 12.5553290417
89 208 87 87 4.05391103443
2002/07/26/big/img_97
1
47 26 89 89 4.57240094425
2002/08/06/big/img_2503
1
307 73 73 73 6.50917013816
2002/07/19/big/img_254
1
68 58 130 130 7.5937820549
2002/08/01/big/img_1470
1
55 96 240 240 11.2577520713
2002/08/21/big/img_42
1
100 90 189 189 7.7440309872
2002/08/20/big/img_217
2
83 10 71 71 4.9209480384
324 33 88 88 6.58991306432
2002/08/06/big/img_2459
2
67 29 77 77 7.75378702342
161 46 76 76 8.34615716425
2002/07/19/big/img_552
1
56 92 185 185 10.5328880476
2002/08/13/big/img_717
1
132 242 74 74 8.44924409193
2002/08/12/big/img_586
3
388 78 33 33 2.42135217245
81 39 93 93 7.55123706243
302 52 98 98 6.66245913197
2002/08/20/big/img_411
2
191 31 132 132 7.1792890323
54 50 108 108 10.6826881041
2003/01/13/big/img_768
2
76 81 176 176 5.8335122384
68 237 170 170 1.07371498976
2002/08/07/big/img_1747
1
157 38 112 112 4.70031812874
2002/08/15/big/img_385
1
130 27 101 101 3.21552013158
2002/08/01/big/img_1648
1
126 82 143 143 9.17625613615
2002/08/15/big/img_311
1
118 54 159 159 7.63838914328
2002/08/21/big/img_95
2
121 124 62 62 3.5218900523
118 64 69 69 4.54677008669
2002/08/09/big/img_108
3
168 56 60 60 -0.130544887681
347 78 90 90 6.90308510436
148 44 96 96 2.25035710534
2002/08/21/big/img_398
1
119 110 132 132 11.4263561937
2002/08/17/big/img_340
3
263 58 31 31 5.83939814882
165 51 39 39 5.80687806284
55 33 90 90 11.0047621123
2002/08/14/big/img_474
3
342 30 74 74 9.15874010249
100 46 84 84 8.79375114449
17 150 101 101 4.23566005391
2002/08/13/big/img_294
1
58 110 173 173 6.60587210453
2002/08/24/big/img_840
2
119 55 98 98 6.45935993915
87 105 55 55 1.63868200342
2002/08/09/big/img_808
2
263 40 69 69 10.4361191035
97 50 72 72 4.71145916748
2002/08/23/big/img_491
2
159 40 108 108 2.76090708596
69 88 89 89 12.6174110527
2002/07/28/big/img_33
1
174 69 120 120 4.17303805117
2003/01/13/big/img_664
2
23 132 75 75 5.25919208064
105 163 113 113 6.39893605484
2002/08/02/big/img_261
2
91 52 83 83 1.85960994958
94 328 62 62 2.09154613683
2002/08/09/big/img_591
1
17 108 218 218 6.84145605675
2002/07/26/big/img_309
1
127 37 194 194 10.0946710023
2003/01/14/big/img_372
2
74 29 72 72 4.43385811796
4 240 98 98 4.52559411613
2002/08/19/big/img_581
2
125 62 117 117 4.74817707157
240 123 91 91 7.74341601011
2002/08/19/big/img_168
1
146 74 177 177 7.83199403941
2002/08/26/big/img_422
1
85 55 78 78 2.40987295215
2002/07/24/big/img_106
1
107 87 149 149 8.02841909876
2002/08/01/big/img_1936
1
54 19 123 123 8.50117813505
2002/08/05/big/img_3764
3
354 131 29 29 1.42225113971
90 82 132 132 6.27499801636
208 112 150 150 2.26876610535
2002/08/21/big/img_266
2
302 196 38 38 4.58203699451
143 34 98 98 6.07381400344
2002/08/31/big/img_17968
1
39 125 104 104 8.82504096715
2002/08/01/big/img_1941
1
42 91 241 241 13.1101431256
2002/08/15/big/img_550
1
275 76 105 105 8.12383512815
2002/08/14/big/img_13
1
102 47 83 83 11.4343470942
2002/07/30/big/img_171
1
224 31 74 74 5.15195708693
2003/01/13/big/img_490
1
94 84 113 113 4.64790802653
2002/07/25/big/img_427
2
194 102 70 70 8.6014011958
70 167 83 83 2.18997509725
2002/07/19/big/img_770
1
161 53 130 130 11.4200771359
2002/08/12/big/img_759
3
78 67 30 30 0.679968118086
226 296 36 36 0.909390126704
106 116 103 103 8.62874701427
2003/01/15/big/img_1360
2
57 44 143 143 7.09637999831
53 9 121 121 3.63628705352
2002/08/05/big/img_3692
2
92 48 119 119 5.89524214051
314 107 102 102 11.5726350712
2003/01/16/big/img_30
2
51 36 124 124 10.5099410684
275 57 110 110 2.00435309537
2002/07/25/big/img_1026
4
204 44 78 78 8.92206798046
358 58 78 78 12.1450470378
6 85 70 70 2.26011397067
89 82 78 78 3.15045426105
2002/07/22/big/img_288
1
191 55 113 113 8.96785697446
2002/08/29/big/img_18801
1
151 197 88 88 6.59420996829
2002/07/24/big/img_793
2
122 32 82 82 9.11405105831
231 279 52 52 -0.301965077815
2002/08/13/big/img_178
1
72 62 131 131 7.79612115765
2002/08/06/big/img_2322
3
175 44 105 105 8.13031513867
329 45 91 91 10.1548570892
30 49 92 92 8.50421103829
2003/01/14/big/img_560
5
308 64 35 35 9.03948310897
318 105 48 48 4.6267591269
45 80 61 61 4.57691209408
311 122 87 87 3.10047312145
187 39 91 91 9.93746103457
2002/08/18/big/img_408
2
136 40 110 110 4.9245710469
146 121 91 91 1.24523709569
2003/01/16/big/img_915
2
135 66 102 102 7.96206408634
118 122 80 80 0.831463067036
2003/01/16/big/img_679
1
177 165 138 138 7.73155709956
2002/08/07/big/img_1552
2
225 64 99 99 7.91769305978
101 295 74 74 1.55082614755
2002/08/29/big/img_19050
1
145 282 99 99 7.71023913415
2002/08/01/big/img_2172
2
183 65 142 142 7.10288287926
9 83 114 114 7.26255206176
2002/07/31/big/img_30
1
127 63 106 106 5.16179827496
2002/07/30/big/img_1019
7
180 20 89 89 7.23300306714
290 23 90 90 8.34920205822
69 25 88 88 4.08167911827
121 165 92 92 7.30256297992
12 172 89 89 6.97968801594
346 168 88 88 6.4480861171
239 172 84 84 9.17493094032
2002/07/30/big/img_587
2
104 62 177 177 9.11180005682
162 386 61 61 6.30721004092
2003/01/13/big/img_773
1
140 146 107 107 5.12777211901
2002/07/30/big/img_410
2
215 141 27 27 5.88966904132
90 50 94 94 4.48756798817
2002/07/28/big/img_65
0
2002/08/05/big/img_3138
3
144 49 97 97 1.71751200309
150 86 87 87 8.88202711981
288 191 115 115 0.34402101353
2002/07/23/big/img_541
2
81 101 180 180 9.2039401402
236 362 58 58 1.7985630575
2002/08/22/big/img_963
1
114 37 88 88 9.50490716344
2002/07/27/big/img_657
2
9 100 31 31 0.13075706939
199 77 82 82 4.64008693717
2002/07/30/big/img_1051
4
319 74 36 36 7.77840407513
261 71 45 45 6.30090415699
151 31 67 67 5.34645702824
22 57 95 95 6.89728609979
2003/01/16/big/img_150
4
263 213 70 70 1.96103306737
120 176 73 73 5.46382109862
62 55 113 113 3.48760012951
256 131 100 100 8.16515796114
2002/07/31/big/img_519
1
232 28 124 124 3.35619302694
2002/08/01/big/img_1961
1
63 72 216 216 8.71451211692
2002/08/05/big/img_3752
2
30 60 196 196 5.84376296535
233 76 187 187 9.4375470641
2002/07/23/big/img_631
1
253 53 98 98 10.3893319754
2003/01/14/big/img_237
1
66 67 164 164 5.37893911748
2002/07/28/big/img_21
4
62 333 52 52 2.75617909123
73 39 207 207 9.90494109888
58 248 61 61 3.41527710238
64 268 70 70 1.44321006787
2002/07/22/big/img_813
2
133 129 61 61 2.68960017449
123 63 87 87 10.3043160586
2002/08/05/big/img_3563
2
251 199 53 53 2.26028999715
236 73 105 105 7.02070702141
2003/01/17/big/img_620
2
238 9 145 145 -0.497703955567
128 64 126 126 5.41759403935
2002/07/19/big/img_523
2
264 79 88 88 10.7308250861
86 50 122 122 2.11667203769
2002/07/30/big/img_904
3
302 75 132 132 8.6596789881
191 197 54 54 4.7824300637
133 90 162 162 4.22903698712
2002/08/29/big/img_18642
2
117 261 99 99 4.0709369898
107 237 172 172 3.07953087188
2002/08/11/big/img_492
3
172 121 54 54 1.15749398601
334 34 82 82 5.35189005261
151 46 92 92 8.9246091136
2002/08/01/big/img_2130
1
53 15 90 90 9.66296912491
2002/07/25/big/img_618
1
16 162 164 164 2.94294506422
2002/08/17/big/img_305
1
62 180 106 106 9.60512811266
2003/01/16/big/img_520
2
229 55 140 140 9.05534006486
57 132 165 165 6.23189707927
2002/07/26/big/img_495
1
47 88 203 203 8.17419908679
2002/08/17/big/img_164
1
141 76 99 99 6.6710620675
2002/08/03/big/img_440
1
140 219 73 73 2.74835610896
2002/07/24/big/img_441
1
300 75 83 83 9.62363805226
2002/08/06/big/img_2146
1
199 71 95 95 6.6020631289
2002/08/11/big/img_558
1
97 56 158 158 8.57614401553
2002/08/02/big/img_545
15
14 30 58 58 2.41325120081
281 34 63 63 4.50939410564
191 30 65 65 5.88565595978
376 33 62 62 6.22359418229
190 152 69 69 7.88592702098
285 155 63 63 8.05622191454
11 157 65 65 8.25858702365
375 158 65 65 7.28571788996
100 24 66 66 7.81447402079
101 159 67 67 6.47863709269
12 286 62 62 12.6371189332
194 284 61 61 8.14780104434
283 285 63 63 7.5623320117
101 283 63 63 6.3772610281
368 287 72 72 6.70008200099
2002/08/31/big/img_18090
1
131 70 116 116 5.09684123343
2003/01/01/big/img_136
1
115 39 69 69 4.66565427295
2002/07/25/big/img_1099
2
93 81 184 184 8.02751196566
85 279 151 151 4.01073696476
2003/01/13/big/img_728
1
51 126 173 173 7.20918412897
2003/01/16/big/img_197
4
28 69 25 25 2.22494607203
124 28 72 72 9.29712592828
238 98 86 86 5.36565205402
239 36 79 79 6.74175412481
2002/07/26/big/img_651
1
183 103 105 105 4.91841009154
2002/08/11/big/img_676
3
83 206 26 26 1.45979809848
19 37 127 127 1.58275412855
253 103 142 142 5.10830309003
2003/01/15/big/img_10
3
157 80 73 73 0.187276021985
91 90 64 64 1.14145197795
194 20 94 94 3.47892813914
2002/08/21/big/img_250
1
27 49 271 271 4.96736482234
2002/08/14/big/img_325
1
203 187 95 95 1.59836701816
2002/08/04/big/img_390
1
191 41 155 155 3.0279609061
2002/07/24/big/img_554
2
43 92 140 140 5.42789717106
265 117 117 117 3.01200411696
2003/01/16/big/img_333
1
58 66 120 120 9.07116410503
2002/07/31/big/img_922
2
158 50 72 72 5.63985504338
303 116 69 69 4.63536104222
2002/09/02/big/img_15586
2
134 13 29 29 2.53756312787
72 93 89 89 8.86311308661
2003/01/16/big/img_184
1
112 76 134 134 5.83188003546
2002/07/22/big/img_766
1
57 139 200 200 6.25545999728
2002/07/21/big/img_608
1
90 126 232 232 8.08099004871
2002/08/07/big/img_1578
1
160 126 140 140 9.91866401787
2002/08/17/big/img_961
2
131 51 99 99 9.06786311691
264 51 90 90 6.46319810621
2002/07/27/big/img_324
1
50 79 198 198 8.57751214289
2002/08/05/big/img_3765
3
327 34 70 70 4.92429895076
376 78 49 49 2.81498804776
62 46 80 80 5.90049408015
2002/08/23/big/img_462
2
101 37 88 88 8.18795716407
42 211 55 55 3.79098102899
2003/01/16/big/img_382
1
134 41 99 99 5.0307380482
2002/08/27/big/img_19838
1
269 203 126 126 7.98975000379
2002/08/01/big/img_1505
1
97 262 96 96 7.75586914166
2002/08/21/big/img_662
6
107 88 61 61 7.04916712147
81 32 46 46 6.19267522416
249 105 73 73 10.7932430126
322 18 60 60 4.24337700865
359 74 54 54 1.25327907706
2 243 38 38 3.61062314396
2002/08/14/big/img_605
1
63 119 213 213 8.9855240059
2002/08/19/big/img_816
3
120 190 81 81 8.39651509386
236 358 73 73 11.6685781552
47 350 66 66 2.42237808334
2002/07/29/big/img_136
1
20 104 229 229 6.26290505857
2002/08/20/big/img_719
2
114 48 210 210 8.95487716899
190 311 85 85 2.42428611912
2002/08/06/big/img_2826
4
210 24 91 91 6.19278616161
104 114 60 60 5.31911603251
162 73 180 180 4.98410301754
10 166 159 159 6.25003201998
2002/08/10/big/img_630
1
36 32 106 106 4.82271402195
2003/01/17/big/img_973
1
102 118 130 130 9.16873601399
2002/08/14/big/img_116
1
181 47 100 100 11.6585260033
2002/08/02/big/img_666
2
245 97 95 95 5.31490903132
88 169 105 105 7.01556602953
2002/08/21/big/img_710
2
60 104 204 204 6.92963715072
5 120 158 158 1.63921106409
2002/08/05/big/img_55
2
276 43 83 83 11.4309661324
183 95 97 97 6.09745098685
2002/07/31/big/img_229
1
17 111 270 270 6.24935706303
2002/08/01/big/img_1549
2
130 197 130 130 2.77884707955
103 65 162 162 7.9306111465
2002/07/23/big/img_432
2
235 87 97 97 8.5191631107
238 116 118 118 1.52869503916
2002/07/21/big/img_430
1
163 35 90 90 5.78518301336
2002/08/21/big/img_549
4
123 44 79 79 6.77437020483
300 143 69 69 5.45205003157
351 71 63 63 4.0832680267
129 196 170 170 3.73411608924
2002/08/08/big/img_985
1
104 45 98 98 6.12960903085
2002/07/20/big/img_610
0
2002/07/23/big/img_978
1
162 66 176 176 11.8737790645
2002/08/23/big/img_219
2
289 166 78 78 -0.442022950505
282 69 90 90 10.9579411258
2002/07/25/big/img_175
5
421 62 26 26 1.81741010601
403 158 47 47 4.08937804674
247 136 61 61 4.26345509727
143 36 62 62 10.631772153
42 48 59 59 8.08243011136
2003/01/15/big/img_230
1
99 60 86 86 8.37895896815
2002/08/23/big/img_385
1
111 282 92 92 10.1057841891
2002/07/31/big/img_879
2
62 101 203 203 8.41395793384
48 327 99 99 1.37249698403
2002/08/12/big/img_495
1
212 55 128 128 1.2025280727
2002/08/22/big/img_499
2
94 42 94 94 9.3847840972
212 422 27 27 1.94168701855
2002/08/30/big/img_18322
1
77 27 111 111 4.54118107696
2002/08/15/big/img_795
2
148 128 28 28 3.43704505981
68 106 80 80 6.14138612332
2002/08/13/big/img_835
2
256 38 102 102 8.67561016802
31 128 81 81 7.77893105027
2003/01/17/big/img_930
1
70 47 75 75 7.44845813204
2002/07/30/big/img_873
3
263 92 81 81 2.43753006571
8 54 92 92 8.12455511204
123 58 124 124 7.4327041569
2002/08/11/big/img_257
1
122 54 113 113 10.069397011
2002/07/31/big/img_593
1
63 51 99 99 3.88701401924
2002/08/21/big/img_916
6
144 135 80 80 3.3542161269
218 291 37 37 2.30252000823
138 63 92 92 7.36972511321
282 292 58 58 -0.851450917835
132 177 114 114 3.50238298852
317 342 62 62 0.325171040546
2003/01/13/big/img_814
2
108 51 77 77 8.03699298896
42 330 65 65 -1.35611790122
2002/07/25/big/img_722
2
124 65 114 114 6.16996002867
232 94 100 100 7.40822508879
2002/08/16/big/img_379
1
145 119 174 174 10.5782401489
2002/07/31/big/img_497
1
210 85 165 165 10.9310661153
2002/07/22/big/img_602
1
45 75 261 261 9.04138412018
2002/08/21/big/img_642
1
18 136 239 239 9.87673505204
2002/08/21/big/img_614
3
29 36 89 89 8.01197609509
310 64 96 96 10.9775331017
125 72 121 121 4.74687208742
2002/08/23/big/img_482
2
115 57 94 94 8.4891691056
216 344 46 46 1.04207705316
2002/07/29/big/img_603
3
213 107 56 56 5.96906100999
123 23 82 82 5.56674690236
173 195 125 125 2.01182098786
2002/08/13/big/img_705
2
210 137 116 116 7.949741007
77 98 131 131 7.81414100842
2002/07/23/big/img_833
1
153 108 92 92 5.4111961454
2003/01/14/big/img_511
1
117 66 76 76 8.492628137
2002/07/24/big/img_376
1
74 24 92 92 9.59596106096
2002/08/17/big/img_1030
1
123 69 145 145 8.13914207643
2002/08/05/big/img_3576
1
184 98 80 80 9.56193206616
2002/08/16/big/img_540
1
349 35 82 82 8.76984713663
2002/07/22/big/img_630
1
153 108 92 92 5.4111961454
2002/08/10/big/img_180
2
23 57 137 137 7.27702201804
244 361 29 29 2.87795711332
2002/08/14/big/img_905
2
178 43 72 72 5.60241800937
247 60 69 69 6.74223321717
2002/08/29/big/img_18777
1
62 88 129 129 8.78797707515
2002/08/22/big/img_693
2
139 45 130 130 9.17193602229
232 84 136 136 3.5252851019
2003/01/16/big/img_933
5
156 58 44 44 5.16163507348
220 71 53 53 2.78706418787
53 44 59 59 9.06191304134
313 76 62 62 7.43193690706
226 48 57 57 2.37380008161
2002/08/20/big/img_555
1
80 104 153 153 7.69295318623
2002/08/15/big/img_549
1
103 57 95 95 8.38878405787
2003/01/14/big/img_830
1
65 40 120 120 9.02186715498
2003/01/16/big/img_64
2
34 55 127 127 7.23161499965
186 252 68 68 1.53749790735
2002/08/27/big/img_19670
1
96 42 122 122 6.1536470516
2002/08/22/big/img_729
1
74 82 191 191 9.78859605442
2002/07/27/big/img_981
2
126 51 113 113 6.98990809906
272 229 71 71 1.75153705192
2002/08/09/big/img_458
1
81 59 105 105 4.59181710565
2003/01/17/big/img_884
2
145 29 63 63 3.80997309525
217 44 98 98 7.10525610339
2002/07/25/big/img_639
1
290 54 116 116 7.62711413781
