1
0
2
1
33 115 314 314 7.36529600929
3
1
107 100 287 287 9.43781296065
4
1
63 153 306 306 10.5656300526
5
0
6
0
7
1
71 18 71 71 9.19410900347
8
2
183 80 82 82 10.5332520371
27 0 100 100 2.2447109358
9
1
72 89 294 294 8.71356902522
10
1
243 29 74 74 4.10954307014
11
1
108 13 350 350 9.17800205125
12
2
242 140 113 113 6.12189099094
358 539 85 85 1.20452616055
13
1
210 72 144 144 10.0264071102
14
1
495 159 56 56 2.99628005031
15
1
57 20 119 119 1.20554613246
16
1
242 112 420 420 7.99390313996
17
0
18
1
218 55 261 261 8.45163303515
19
1
314 93 203 203 7.74974014465
20
0
21
0
22
0
23
1
179 84 325 325 7.75128108368
24
2
125 142 449 449 5.3766160637
344 723 96 96 3.45850594057
25
1
234 110 149 149 5.85731000296
26
1
101 153 262 262 11.6586419965
27
1
216 86 276 276 5.94639706024
28
1
181 158 345 345 8.20983211434
29
0
30
1
144 28 79 79 9.40018214716
31
1
93 116 253 253 8.71952504542
32
1
212 40 64 64 3.40648812446
33
1
105 141 257 257 9.2465050199
34
1
144 152 324 324 6.53702515684
35
1
43 47 108 108 8.01876116468
36
1
4 52 153 153 4.00170814473
37
2
198 18 26 26 0.925180136634
76 33 55 55 1.83694804105
38
1
275 50 143 143 7.72855604644
39
0
40
0
41
0
42
1
56 37 55 55 7.59016009246
43
1
255 60 113 113 6.18313705496
44
0
45
1
214 364 70 70 1.98934407777
46
0
47
4
768 154 66 66 0.0894800493843
278 116 347 347 3.44911306276
758 246 68 68 0.585150066705
753 343 68 68 -1.38661891042
48
2
376 44 294 294 1.80740403704
335 358 140 140 3.33825805917
49
1
127 853 54 54 1.74191685551
50
2
3 101 52 52 0.188858070818
373 22 362 362 4.77209193952
